2020-03-13 11:47:03.063 +07:00 [Error] Login with account :Admin
2020-03-13 19:12:55.791 +07:00 [Error] Login with account :admin
2020-03-13 20:46:09.323 +07:00 [Error]  Error 404
2020-03-13 20:47:01.768 +07:00 [Error] Login with account :admin
2020-03-13 20:50:56.263 +07:00 [Error] Login with account :Admin
